{
	"info": {
		"_postman_id": "fb23acd0-10c2-4652-bea9-53a157d48af7",
		"name": "Phoenix-InwarrantyFlow-Rahul",
		"schema": "https://schema.getpostman.com/json/collection/v2.1.0/collection.json",
		"_exporter_id": "8261726"
	},
	"item": [
		{
			"name": "LoginAPIRequest",
			"event": [
				{
					"listen": "prerequest",
					"script": {
						"exec": [
							"//console.log(\"Inside the Pre-request tab\")\r",
							"\r",
							"//Create a local variable in Postman\r",
							"//pm.variables.set(\"Username\",\"iamfd\");\r",
							"//pm.variables.set(\"Pass\",\"password\");"
						],
						"type": "text/javascript"
					}
				},
				{
					"listen": "test",
					"script": {
						"exec": [
							"//PL javascript\r",
							"//console.log(\"Inside the Test tab\")\r",
							"\r",
							"//access/retrieve the response\r",
							"var x=pm.response.json(); //js variable\r",
							"//console.log(x.data.token);\r",
							"\r",
							"pm.collectionVariables.set(\"FDAuth\",x.data.token);"
						],
						"type": "text/javascript"
					}
				}
			],
			"request": {
				"method": "POST",
				"header": [
					{
						"key": "Content-Type",
						"value": "application/json",
						"type": "text"
					}
				],
				"body": {
					"mode": "raw",
					"raw": "{\r\n    \"username\": \"{{Username}}\",\r\n    \"password\": \"{{Pass}}\"\r\n}"
				},
				"url": {
					"raw": "{{BASE_URL}}/v1/login",
					"host": [
						"{{BASE_URL}}"
					],
					"path": [
						"v1",
						"login"
					]
				}
			},
			"response": []
		},
		{
			"name": "CountAPIRequest",
			"event": [
				{
					"listen": "test",
					"script": {
						"exec": [
							""
						],
						"type": "text/javascript"
					}
				}
			],
			"protocolProfileBehavior": {
				"disableBodyPruning": true
			},
			"request": {
				"method": "GET",
				"header": [
					{
						"key": "Authorization",
						"value": "{{FDAuth}}",
						"type": "text"
					}
				],
				"body": {
					"mode": "raw",
					"raw": "",
					"options": {
						"raw": {
							"language": "json"
						}
					}
				},
				"url": {
					"raw": "{{BASE_URL}}/v1/dashboard/count",
					"host": [
						"{{BASE_URL}}"
					],
					"path": [
						"v1",
						"dashboard",
						"count"
					]
				}
			},
			"response": []
		},
		{
			"name": "CreateJobAPIRequest",
			"event": [
				{
					"listen": "test",
					"script": {
						"exec": [
							"//access/retrieve the response\r",
							"var c=pm.response.json(); //js variable\r",
							"//console.log(c.data.token);\r",
							"\r",
							"pm.collectionVariables.set(\"JobID\",c.data.id);"
						],
						"type": "text/javascript"
					}
				}
			],
			"request": {
				"method": "POST",
				"header": [
					{
						"key": "Authorization",
						"value": "{{FDAuth}}",
						"type": "text"
					},
					{
						"key": "",
						"value": "",
						"type": "text",
						"disabled": true
					}
				],
				"body": {
					"mode": "raw",
					"raw": "{\r\n  \"mst_service_location_id\": 0,\r\n  \"mst_platform_id\": 2,\r\n  \"mst_warrenty_status_id\": 1,\r\n  \"mst_oem_id\": 1,\r\n  \"customer\": {\r\n    \"first_name\": \"Raj\",\r\n    \"last_name\": \"Roy\",\r\n    \"mobile_number\": \"9876543210\",\r\n    \"mobile_number_alt\": \"\",\r\n    \"email_id\": \"rahulpanganti@gmail.com\",\r\n    \"email_id_alt\": \"\"\r\n  },\r\n  \"customer_address\": {\r\n    \"flat_number\": \"435\",\r\n    \"apartment_name\": \"45\",\r\n    \"street_name\": \"45\",\r\n    \"landmark\": \"45\",\r\n    \"area\": \"45\",\r\n    \"pincode\": \"44001\",\r\n    \"country\": \"India\",\r\n    \"state\": \"Maharashtra\"\r\n  },\r\n  \"customer_product\": {\r\n    \"dop\": \"2022-07-12T18:30:00.000Z\",\r\n    \"serial_number\": \"98765432103345\",\r\n    \"imei1\": \"98765432103345\",\r\n    \"imei2\": \"98765432103345\",\r\n    \"popurl\": \"2022-07-12T18:30:00.000Z\",\r\n    \"product_id\": 1,\r\n    \"mst_model_id\": 1\r\n  },\r\n  \"problems\": [\r\n    {\r\n      \"id\": 1,\r\n      \"remark\": \"tt\"\r\n    }\r\n  ]\r\n}",
					"options": {
						"raw": {
							"language": "json"
						}
					}
				},
				"url": {
					"raw": "{{BASE_URL}}/v1/job/create",
					"host": [
						"{{BASE_URL}}"
					],
					"path": [
						"v1",
						"job",
						"create"
					]
				}
			},
			"response": []
		},
		{
			"name": "SupLoginAPIRequest",
			"event": [
				{
					"listen": "test",
					"script": {
						"exec": [
							"//access/retrieve the response\r",
							"var y=pm.response.json(); //js variable\r",
							"//console.log(y.data.token);\r",
							"\r",
							"pm.collectionVariables.set(\"SUPAuth\",y.data.token);"
						],
						"type": "text/javascript"
					}
				},
				{
					"listen": "prerequest",
					"script": {
						"exec": [
							"//Create a local variable in Postman\r",
							"pm.variables.set(\"Username1\",\"iamsup\");\r",
							"pm.variables.set(\"Pass1\",\"password\");"
						],
						"type": "text/javascript"
					}
				}
			],
			"request": {
				"method": "POST",
				"header": [],
				"body": {
					"mode": "raw",
					"raw": "{\r\n    \"username\": \"{{Username1}}\",\r\n    \"password\": \"{{Pass1}}\"\r\n}",
					"options": {
						"raw": {
							"language": "json"
						}
					}
				},
				"url": {
					"raw": "{{BASE_URL}}/v1/login",
					"host": [
						"{{BASE_URL}}"
					],
					"path": [
						"v1",
						"login"
					]
				}
			},
			"response": []
		},
		{
			"name": "SupUserdetailsAPIRequest",
			"request": {
				"method": "GET",
				"header": [
					{
						"key": "Authorization",
						"value": "{{SUPAuth}}",
						"type": "text"
					}
				],
				"url": {
					"raw": "{{BASE_URL}}/v1/userdetails",
					"host": [
						"{{BASE_URL}}"
					],
					"path": [
						"v1",
						"userdetails"
					]
				}
			},
			"response": []
		},
		{
			"name": "SupCountAPIRequest",
			"request": {
				"method": "GET",
				"header": [
					{
						"key": "Authorization",
						"value": "{{SUPAuth}}",
						"type": "text"
					}
				],
				"url": {
					"raw": "{{BASE_URL}}/v1/dashboard/count",
					"host": [
						"{{BASE_URL}}"
					],
					"path": [
						"v1",
						"dashboard",
						"count"
					]
				}
			},
			"response": []
		},
		{
			"name": "SupPendingAPIRequest",
			"request": {
				"method": "POST",
				"header": [
					{
						"key": "Authorization",
						"value": "{{SUPAuth}}",
						"type": "text"
					}
				],
				"body": {
					"mode": "raw",
					"raw": "{\r\n  \"details_key\": \"pending_for_assignment\"\r\n}",
					"options": {
						"raw": {
							"language": "json"
						}
					}
				},
				"url": {
					"raw": "{{BASE_URL}}/v1/dashboard/details",
					"host": [
						"{{BASE_URL}}"
					],
					"path": [
						"v1",
						"dashboard",
						"details"
					]
				}
			},
			"response": []
		},
		{
			"name": "AssignAPIRequest",
			"event": [
				{
					"listen": "test",
					"script": {
						"exec": [
							""
						],
						"type": "text/javascript"
					}
				}
			],
			"request": {
				"method": "POST",
				"header": [
					{
						"key": "Authorization",
						"value": "{{SUPAuth}}",
						"type": "text"
					},
					{
						"key": "",
						"value": "",
						"type": "text",
						"disabled": true
					}
				],
				"body": {
					"mode": "raw",
					"raw": "{\r\n  \"job_id\": \"{{JobID}}\",\r\n  \"engineer_id\": 2\r\n}",
					"options": {
						"raw": {
							"language": "json"
						}
					}
				},
				"url": {
					"raw": "{{BASE_URL}}/v1/engineer/assign",
					"host": [
						"{{BASE_URL}}"
					],
					"path": [
						"v1",
						"engineer",
						"assign"
					]
				}
			},
			"response": []
		},
		{
			"name": "EngLoginAPIRequest",
			"event": [
				{
					"listen": "prerequest",
					"script": {
						"exec": [
							"//Create a local variable in Postman\r",
							"pm.variables.set(\"Username2\",\"iameng\");\r",
							"pm.variables.set(\"Pass2\",\"password\");"
						],
						"type": "text/javascript"
					}
				},
				{
					"listen": "test",
					"script": {
						"exec": [
							"//access/retrieve the response\r",
							"var z=pm.response.json(); //js variable\r",
							"//console.log(z.data.token);\r",
							"\r",
							"pm.collectionVariables.set(\"EngAuth\",z.data.token);"
						],
						"type": "text/javascript"
					}
				}
			],
			"request": {
				"method": "POST",
				"header": [],
				"body": {
					"mode": "raw",
					"raw": "{\r\n    \"username\": \"{{Username2}}\",\r\n    \"password\": \"{{Pass2}}\"\r\n}",
					"options": {
						"raw": {
							"language": "json"
						}
					}
				},
				"url": {
					"raw": "{{BASE_URL}}/v1/login",
					"host": [
						"{{BASE_URL}}"
					],
					"path": [
						"v1",
						"login"
					]
				}
			},
			"response": []
		},
		{
			"name": "EngUserdetailsAPIRequest",
			"request": {
				"method": "GET",
				"header": [
					{
						"key": "Authorization",
						"value": "{{EngAuth}}",
						"type": "text"
					}
				],
				"url": {
					"raw": "{{BASE_URL}}/v1/userdetails",
					"host": [
						"{{BASE_URL}}"
					],
					"path": [
						"v1",
						"userdetails"
					]
				}
			},
			"response": []
		},
		{
			"name": "EngCountAPIRequest",
			"request": {
				"method": "GET",
				"header": [
					{
						"key": "Authorization",
						"value": "{{EngAuth}}",
						"type": "text"
					}
				],
				"url": {
					"raw": "{{BASE_URL}}/v1/dashboard/count",
					"host": [
						"{{BASE_URL}}"
					],
					"path": [
						"v1",
						"dashboard",
						"count"
					]
				}
			},
			"response": []
		},
		{
			"name": "MyjobsAPIRequest",
			"request": {
				"method": "GET",
				"header": [
					{
						"key": "Authorization",
						"value": "{{EngAuth}}",
						"type": "text"
					}
				],
				"url": {
					"raw": "{{BASE_URL}}/v1/engineer/myjobs",
					"host": [
						"{{BASE_URL}}"
					],
					"path": [
						"v1",
						"engineer",
						"myjobs"
					]
				}
			},
			"response": []
		},
		{
			"name": "MasterAPIRequest",
			"request": {
				"method": "POST",
				"header": [
					{
						"key": "Authorization",
						"value": "{{EngAuth}}",
						"type": "text"
					}
				],
				"body": {
					"mode": "raw",
					"raw": "{\r\n  \"message\": \"Success\",\r\n  \"data\": {\r\n    \"mst_oem\": [\r\n      {\r\n        \"id\": 1,\r\n        \"name\": \"Google\",\r\n        \"code\": \"GL\",\r\n        \"is_active\": 1,\r\n        \"created_at\": \"2021-10-26T08:24:17.000Z\",\r\n        \"modified_at\": \"2021-10-26T08:24:17.000Z\"\r\n      },\r\n      {\r\n        \"id\": 2,\r\n        \"name\": \"Apple\",\r\n        \"code\": \"APL\",\r\n        \"is_active\": 1,\r\n        \"created_at\": \"2021-10-26T08:24:17.000Z\",\r\n        \"modified_at\": \"2021-10-26T08:24:17.000Z\"\r\n      },\r\n      {\r\n        \"id\": 6,\r\n        \"name\": \"LG\",\r\n        \"code\": \"LGGG\",\r\n        \"is_active\": 1,\r\n        \"created_at\": \"2022-05-21T10:11:28.000Z\",\r\n        \"modified_at\": \"2022-05-21T10:54:11.000Z\"\r\n      }\r\n    ],\r\n    \"mst_model\": [\r\n      {\r\n        \"id\": 1,\r\n        \"name\": \"Nexus 2 blue\",\r\n        \"code\": \"NX2BL\",\r\n        \"mst_product_id\": 1,\r\n        \"is_active\": 1,\r\n        \"created_at\": \"2021-10-29T19:28:00.000Z\",\r\n        \"modified_at\": \"2021-10-29T19:28:00.000Z\"\r\n      },\r\n      {\r\n        \"id\": 2,\r\n        \"name\": \"gallexy\",\r\n        \"code\": \"gl\",\r\n        \"mst_product_id\": 1,\r\n        \"is_active\": 1,\r\n        \"created_at\": \"2022-06-10T07:18:03.000Z\",\r\n        \"modified_at\": \"2022-06-10T07:18:03.000Z\"\r\n      }\r\n    ],\r\n    \"mst_action_status\": [\r\n      {\r\n        \"id\": 1,\r\n        \"name\": \"Job Creation\",\r\n        \"code\": \"JBC\",\r\n        \"description\": \"Job Creation\",\r\n        \"is_active\": 1,\r\n        \"created_at\": \"2021-10-26T08:48:23.000Z\",\r\n        \"modified_at\": \"2021-10-26T08:48:23.000Z\"\r\n      },\r\n      {\r\n        \"id\": 2,\r\n        \"name\": \"Pending For Job Assignment\",\r\n        \"code\": \"PJFA\",\r\n        \"description\": \"Pending For Job Assignment\",\r\n        \"is_active\": 1,\r\n        \"created_at\": \"2021-10-26T08:48:23.000Z\",\r\n        \"modified_at\": \"2021-10-26T08:48:23.000Z\"\r\n      },\r\n      {\r\n        \"id\": 3,\r\n        \"name\": \"Pending For Repair\",\r\n        \"code\": \"PFR\",\r\n        \"description\": \"Pending For Repair\",\r\n        \"is_active\": 1,\r\n        \"created_at\": \"2021-10-26T08:48:23.000Z\",\r\n        \"modified_at\": \"2021-10-26T08:48:23.000Z\"\r\n      },\r\n      {\r\n        \"id\": 4,\r\n        \"name\": \"Pending For QC\",\r\n        \"code\": \"PFQC\",\r\n        \"description\": \"Pending For QC\",\r\n        \"is_active\": 1,\r\n        \"created_at\": \"2021-10-26T08:48:23.000Z\",\r\n        \"modified_at\": \"2021-10-26T08:48:23.000Z\"\r\n      },\r\n      {\r\n        \"id\": 5,\r\n        \"name\": \"Pending for Delivery\",\r\n        \"code\": \"PDL\",\r\n        \"description\": \"Pending for Delivery\",\r\n        \"is_active\": 1,\r\n        \"created_at\": \"2021-10-26T08:48:23.000Z\",\r\n        \"modified_at\": \"2021-12-20T08:00:39.000Z\"\r\n      },\r\n      {\r\n        \"id\": 6,\r\n        \"name\": \"Delivered to customer\",\r\n        \"code\": \"DC\",\r\n        \"description\": \"Delivered to customer\",\r\n        \"is_active\": 1,\r\n        \"created_at\": \"2021-10-26T08:48:23.000Z\",\r\n        \"modified_at\": \"2021-12-20T08:01:48.000Z\"\r\n      },\r\n      {\r\n        \"id\": 7,\r\n        \"name\": \"QC Rejected\",\r\n        \"code\": \"QCR\",\r\n        \"description\": \"QC Rejected\",\r\n        \"is_active\": 1,\r\n        \"created_at\": \"2021-10-26T08:48:23.000Z\",\r\n        \"modified_at\": \"2021-10-26T08:48:23.000Z\"\r\n      },\r\n      {\r\n        \"id\": 8,\r\n        \"name\": \"Quatation Raised\",\r\n        \"code\": \"QR\",\r\n        \"description\": \"Quatation Raised\",\r\n        \"is_active\": 1,\r\n        \"created_at\": \"2021-10-26T08:48:23.000Z\",\r\n        \"modified_at\": \"2021-10-26T08:48:23.000Z\"\r\n      },\r\n      {\r\n        \"id\": 9,\r\n        \"name\": \"Pending For Payment\",\r\n        \"code\": \"PFP\",\r\n        \"description\": \"Pending For Payment\",\r\n        \"is_active\": 1,\r\n        \"created_at\": \"2021-10-26T08:48:23.000Z\",\r\n        \"modified_at\": \"2021-10-26T08:48:23.000Z\"\r\n      },\r\n      {\r\n        \"id\": 10,\r\n        \"name\": \"Payment Is Done\",\r\n        \"code\": \"PD\",\r\n        \"description\": \"Payment Is Done\",\r\n        \"is_active\": 1,\r\n        \"created_at\": \"2021-10-26T08:48:23.000Z\",\r\n        \"modified_at\": \"2021-10-26T08:48:23.000Z\"\r\n      },\r\n      {\r\n        \"id\": 11,\r\n        \"name\": \"Job Closed Successfully\",\r\n        \"code\": \"JC\",\r\n        \"description\": \"Job Closed Successfully\",\r\n        \"is_active\": 1,\r\n        \"created_at\": \"2021-10-26T08:48:23.000Z\",\r\n        \"modified_at\": \"2021-10-26T08:48:23.000Z\"\r\n      },\r\n      {\r\n        \"id\": 12,\r\n        \"name\": \"Assigned to FST - Inbound\",\r\n        \"code\": \"AFI\",\r\n        \"description\": \"Assigned to FST - Inbound\",\r\n        \"is_active\": 1,\r\n        \"created_at\": \"2021-10-26T08:48:23.000Z\",\r\n        \"modified_at\": \"2021-10-26T08:48:23.000Z\"\r\n      },\r\n      {\r\n        \"id\": 13,\r\n        \"name\": \"Assigned to FST - Outbound\",\r\n        \"code\": \"AFO\",\r\n        \"description\": \"Assigned to FST - Outbound\",\r\n        \"is_active\": 1,\r\n        \"created_at\": \"2021-10-26T08:48:23.000Z\",\r\n        \"modified_at\": \"2021-10-26T08:48:23.000Z\"\r\n      },\r\n      {\r\n        \"id\": 14,\r\n        \"name\": \"Begin Journey\",\r\n        \"code\": \"BJY\",\r\n        \"description\": \"Begin Journey\",\r\n        \"is_active\": 1,\r\n        \"created_at\": \"2021-10-26T08:48:23.000Z\",\r\n        \"modified_at\": \"2021-10-26T08:48:23.000Z\"\r\n      },\r\n      {\r\n        \"id\": 15,\r\n        \"name\": \"Submitted To FD\",\r\n        \"code\": \"SFD\",\r\n        \"description\": \"Submitted To FD\",\r\n        \"is_active\": 1,\r\n        \"created_at\": \"2021-10-26T08:48:23.000Z\",\r\n        \"modified_at\": \"2021-10-26T08:48:23.000Z\"\r\n      },\r\n      {\r\n        \"id\": 16,\r\n        \"name\": \"Collected At FD\",\r\n        \"code\": \"CFD\",\r\n        \"description\": \"Collected At FD\",\r\n        \"is_active\": 1,\r\n        \"created_at\": \"2021-10-26T08:48:23.000Z\",\r\n        \"modified_at\": \"2021-10-26T08:48:23.000Z\"\r\n      }\r\n    ],\r\n    \"mst_warrenty_status\": [\r\n      {\r\n        \"id\": 1,\r\n        \"name\": \"In Warrenty\",\r\n        \"code\": \"IW\",\r\n        \"description\": \"In Warrenty\",\r\n        \"is_active\": 1,\r\n        \"created_at\": \"2021-10-26T08:26:04.000Z\",\r\n        \"modified_at\": \"2021-10-26T08:26:04.000Z\"\r\n      },\r\n      {\r\n        \"id\": 2,\r\n        \"name\": \"Out Of Warrenty\",\r\n        \"code\": \"OOW\",\r\n        \"description\": \"Out Of Warrenty\",\r\n        \"is_active\": 1,\r\n        \"created_at\": \"2021-10-26T08:26:04.000Z\",\r\n        \"modified_at\": \"2021-10-26T08:26:04.000Z\"\r\n      }\r\n    ],\r\n    \"mst_platform\": [\r\n      {\r\n        \"id\": 1,\r\n        \"name\": \"FST\",\r\n        \"code\": \"FST\",\r\n        \"description\": \"Field technician will go to customer's house\",\r\n        \"is_active\": 1,\r\n        \"created_at\": \"2021-10-26T08:37:12.000Z\",\r\n        \"modified_at\": \"2021-10-26T08:37:12.000Z\"\r\n      },\r\n      {\r\n        \"id\": 2,\r\n        \"name\": \"Front Desk\",\r\n        \"code\": \"FD\",\r\n        \"description\": \"Customer will come to service center to submit his device\",\r\n        \"is_active\": 1,\r\n        \"created_at\": \"2021-10-26T08:37:12.000Z\",\r\n        \"modified_at\": \"2021-10-26T08:37:12.000Z\"\r\n      }\r\n    ],\r\n    \"mst_product\": [\r\n      {\r\n        \"id\": 1,\r\n        \"name\": \"Nexus 2\",\r\n        \"code\": \"NX2\",\r\n        \"mst_oem_id\": 1,\r\n        \"is_active\": 1,\r\n        \"created_at\": \"2021-10-29T19:27:21.000Z\",\r\n        \"modified_at\": \"2021-10-29T19:27:21.000Z\"\r\n      },\r\n      {\r\n        \"id\": 2,\r\n        \"name\": \"gallexy\",\r\n        \"code\": \"gl\",\r\n        \"mst_oem_id\": 1,\r\n        \"is_active\": 1,\r\n        \"created_at\": \"2022-06-10T07:16:57.000Z\",\r\n        \"modified_at\": \"2022-06-10T07:16:57.000Z\"\r\n      }\r\n    ],\r\n    \"mst_role\": [\r\n      {\r\n        \"id\": 1,\r\n        \"name\": \"Engineer\",\r\n        \"code\": \"ENG\",\r\n        \"description\": \"Engineer\",\r\n        \"is_active\": 1,\r\n        \"created_at\": \"2021-10-26T08:39:48.000Z\",\r\n        \"modified_at\": \"2021-10-26T08:39:48.000Z\"\r\n      },\r\n      {\r\n        \"id\": 2,\r\n        \"name\": \"Supervisor\",\r\n        \"code\": \"SPV\",\r\n        \"description\": \"Supervisor\",\r\n        \"is_active\": 1,\r\n        \"created_at\": \"2021-10-26T08:39:48.000Z\",\r\n        \"modified_at\": \"2021-10-26T08:39:48.000Z\"\r\n      },\r\n      {\r\n        \"id\": 3,\r\n        \"name\": \"FST\",\r\n        \"code\": \"FST\",\r\n        \"description\": \"Field Service Technician\",\r\n        \"is_active\": 1,\r\n        \"created_at\": \"2021-10-26T08:39:48.000Z\",\r\n        \"modified_at\": \"2021-10-26T08:39:48.000Z\"\r\n      },\r\n      {\r\n        \"id\": 4,\r\n        \"name\": \"QC\",\r\n        \"code\": \"QC\",\r\n        \"description\": \"Quality check\",\r\n        \"is_active\": 1,\r\n        \"created_at\": \"2021-10-26T08:39:48.000Z\",\r\n        \"modified_at\": \"2021-10-26T08:39:48.000Z\"\r\n      },\r\n      {\r\n        \"id\": 5,\r\n        \"name\": \"FrontDesk\",\r\n        \"code\": \"FD\",\r\n        \"description\": \"Front Desk\",\r\n        \"is_active\": 1,\r\n        \"created_at\": \"2021-10-26T08:39:48.000Z\",\r\n        \"modified_at\": \"2022-01-04T15:16:54.000Z\"\r\n      },\r\n      {\r\n        \"id\": 6,\r\n        \"name\": \"Callcenter\",\r\n        \"code\": \"CC\",\r\n        \"description\": \"Callcenter\",\r\n        \"is_active\": 1,\r\n        \"created_at\": \"2021-10-26T08:39:48.000Z\",\r\n        \"modified_at\": \"2022-01-04T15:16:54.000Z\"\r\n      }\r\n    ],\r\n    \"mst_service_location\": [\r\n      {\r\n        \"id\": 1,\r\n        \"name\": \"Service Center A\",\r\n        \"code\": \"B2X\",\r\n        \"mobile_number\": \"8877667788\",\r\n        \"email_id\": \"servicecentera@gmail.com\",\r\n        \"address\": \"M.G. Road, Andheri(E)\",\r\n        \"pincode\": 400075,\r\n        \"country\": \"India\",\r\n        \"gstin\": \"22AAAAA0000A1\",\r\n        \"is_repair_line_engineer\": 1,\r\n        \"is_active\": 1,\r\n        \"created_at\": \"2021-10-26T08:30:50.000Z\",\r\n        \"modified_at\": \"2022-04-03T16:09:58.000Z\"\r\n      },\r\n      {\r\n        \"id\": 2,\r\n        \"name\": \"Service Center B\",\r\n        \"code\": \"SFY\",\r\n        \"mobile_number\": \"8877667789\",\r\n        \"email_id\": \"servicecenterb@gmail.com\",\r\n        \"address\": \"M.G. Road, Andheri(E)\",\r\n        \"pincode\": 400606,\r\n        \"country\": \"India\",\r\n        \"gstin\": \"22AAAAA0000B2\",\r\n        \"is_repair_line_engineer\": 1,\r\n        \"is_active\": 1,\r\n        \"created_at\": \"2021-10-26T08:30:50.000Z\",\r\n        \"modified_at\": \"2022-04-03T16:09:59.000Z\"\r\n      }\r\n    ],\r\n    \"mst_problem\": [\r\n      {\r\n        \"id\": 1,\r\n        \"name\": \"Smartphone is running slow\",\r\n        \"created_at\": \"2022-01-08T10:07:18.000Z\",\r\n        \"modified_at\": \"2022-01-08T10:07:18.000Z\"\r\n      },\r\n      {\r\n        \"id\": 2,\r\n        \"name\": \"Poor battery life\",\r\n        \"created_at\": \"2022-01-08T10:07:18.000Z\",\r\n        \"modified_at\": \"2022-01-08T10:07:18.000Z\"\r\n      },\r\n      {\r\n        \"id\": 3,\r\n        \"name\": \"Phone or app crashes\",\r\n        \"created_at\": \"2022-01-08T10:07:18.000Z\",\r\n        \"modified_at\": \"2022-01-08T10:07:18.000Z\"\r\n      },\r\n      {\r\n        \"id\": 4,\r\n        \"name\": \"Sync issue\",\r\n        \"created_at\": \"2022-01-08T10:07:18.000Z\",\r\n        \"modified_at\": \"2022-01-08T10:07:18.000Z\"\r\n      },\r\n      {\r\n        \"id\": 5,\r\n        \"name\": \"MicroSD card is not working on your phone\",\r\n        \"created_at\": \"2022-01-08T10:07:18.000Z\",\r\n        \"modified_at\": \"2022-01-08T10:07:18.000Z\"\r\n      },\r\n      {\r\n        \"id\": 6,\r\n        \"name\": \"Overheating\",\r\n        \"created_at\": \"2022-01-08T10:07:18.000Z\",\r\n        \"modified_at\": \"2022-01-08T10:07:18.000Z\"\r\n      },\r\n      {\r\n        \"id\": 7,\r\n        \"name\": \"Connecting problem with Bluetooth, Wifi, Cellular network\",\r\n        \"created_at\": \"2022-01-08T10:07:19.000Z\",\r\n        \"modified_at\": \"2022-01-08T10:07:19.000Z\"\r\n      },\r\n      {\r\n        \"id\": 8,\r\n        \"name\": \"Cracked screen\",\r\n        \"created_at\": \"2022-01-08T10:07:19.000Z\",\r\n        \"modified_at\": \"2022-01-08T10:07:19.000Z\"\r\n      },\r\n      {\r\n        \"id\": 9,\r\n        \"name\": \"Other\",\r\n        \"created_at\": \"2022-01-08T10:07:19.000Z\",\r\n        \"modified_at\": \"2022-01-08T10:07:19.000Z\"\r\n      },\r\n      {\r\n        \"id\": 10,\r\n        \"name\": \"Camera issue\",\r\n        \"created_at\": \"2022-06-13T15:01:02.000Z\",\r\n        \"modified_at\": \"2022-06-13T15:01:02.000Z\"\r\n      },\r\n      {\r\n        \"id\": 15,\r\n        \"name\": \"Head Phone Jack not working\",\r\n        \"created_at\": \"2022-06-16T15:22:18.000Z\",\r\n        \"modified_at\": \"2022-06-16T15:22:18.000Z\"\r\n      },\r\n      {\r\n        \"id\": 16,\r\n        \"name\": \"Head Phone issue\",\r\n        \"created_at\": \"2022-06-16T15:27:47.000Z\",\r\n        \"modified_at\": \"2022-06-16T15:27:47.000Z\"\r\n      },\r\n      {\r\n        \"id\": 17,\r\n        \"name\": \"Random Problem\",\r\n        \"created_at\": \"2022-07-11T02:56:01.000Z\",\r\n        \"modified_at\": \"2022-07-11T02:56:01.000Z\"\r\n      },\r\n      {\r\n        \"id\": 18,\r\n        \"name\": \"Mic not working\",\r\n        \"created_at\": \"2022-07-11T15:53:06.000Z\",\r\n        \"modified_at\": \"2022-07-11T15:53:06.000Z\"\r\n      },\r\n      {\r\n        \"id\": 19,\r\n        \"name\": \"Front camera not working\",\r\n        \"created_at\": \"2022-07-13T17:50:54.000Z\",\r\n        \"modified_at\": \"2022-07-13T17:50:54.000Z\"\r\n      },\r\n      {\r\n        \"id\": 20,\r\n        \"name\": \"Battery issue\",\r\n        \"created_at\": \"2022-07-13T17:51:47.000Z\",\r\n        \"modified_at\": \"2022-07-13T17:51:47.000Z\"\r\n      }\r\n    ],\r\n    \"map_fst_pincode\": [\r\n      {\r\n        \"pincode\": 100011,\r\n        \"mst_service_location_id\": 1,\r\n        \"mst_service_location_name\": \"Service Center A\"\r\n      },\r\n      {\r\n        \"pincode\": 100012,\r\n        \"mst_service_location_id\": 1,\r\n        \"mst_service_location_name\": \"Service Center A\"\r\n      },\r\n      {\r\n        \"pincode\": 100013,\r\n        \"mst_service_location_id\": 1,\r\n        \"mst_service_location_name\": \"Service Center A\"\r\n      },\r\n      {\r\n        \"pincode\": 100014,\r\n        \"mst_service_location_id\": 1,\r\n        \"mst_service_location_name\": \"Service Center A\"\r\n      },\r\n      {\r\n        \"pincode\": 100015,\r\n        \"mst_service_location_id\": 1,\r\n        \"mst_service_location_name\": \"Service Center A\"\r\n      },\r\n      {\r\n        \"pincode\": 200011,\r\n        \"mst_service_location_id\": 2,\r\n        \"mst_service_location_name\": \"Service Center B\"\r\n      },\r\n      {\r\n        \"pincode\": 200012,\r\n        \"mst_service_location_id\": 2,\r\n        \"mst_service_location_name\": \"Service Center B\"\r\n      },\r\n      {\r\n        \"pincode\": 200013,\r\n        \"mst_service_location_id\": 2,\r\n        \"mst_service_location_name\": \"Service Center B\"\r\n      },\r\n      {\r\n        \"pincode\": 200014,\r\n        \"mst_service_location_id\": 2,\r\n        \"mst_service_location_name\": \"Service Center B\"\r\n      },\r\n      {\r\n        \"pincode\": 200015,\r\n        \"mst_service_location_id\": 2,\r\n        \"mst_service_location_name\": \"Service Center B\"\r\n      },\r\n      {\r\n        \"pincode\": 400065,\r\n        \"mst_service_location_id\": 1,\r\n        \"mst_service_location_name\": \"Service Center A\"\r\n      }\r\n    ]\r\n  }\r\n}",
					"options": {
						"raw": {
							"language": "json"
						}
					}
				},
				"url": {
					"raw": "{{BASE_URL}}/v1/master",
					"host": [
						"{{BASE_URL}}"
					],
					"path": [
						"v1",
						"master"
					]
				}
			},
			"response": []
		},
		{
			"name": "RepairCompleteAPIRequest",
			"request": {
				"method": "POST",
				"header": [
					{
						"key": "Authorization",
						"value": "{{EngAuth}}",
						"type": "text"
					}
				],
				"body": {
					"mode": "raw",
					"raw": "{\r\n  \"job_id\": \"{{JobID}}\",\r\n  \"problems\": [\r\n    {\r\n      \"id\": 1,\r\n      \"remark\": \"testingAPIRP\"\r\n    }\r\n  ]\r\n}",
					"options": {
						"raw": {
							"language": "json"
						}
					}
				},
				"url": {
					"raw": "{{BASE_URL}}/v1/engineer/repaircomplete",
					"host": [
						"{{BASE_URL}}"
					],
					"path": [
						"v1",
						"engineer",
						"repaircomplete"
					]
				}
			},
			"response": []
		},
		{
			"name": "QCLoginAPIRequest",
			"event": [
				{
					"listen": "prerequest",
					"script": {
						"exec": [
							"//Create a local variable in Postman\r",
							"pm.variables.set(\"Username3\",\"iamqc\");\r",
							"pm.variables.set(\"Pass3\",\"password\");"
						],
						"type": "text/javascript"
					}
				},
				{
					"listen": "test",
					"script": {
						"exec": [
							"//access/retrieve the response\r",
							"var a=pm.response.json(); //js variable\r",
							"//console.log(a.data.token);\r",
							"\r",
							"pm.collectionVariables.set(\"QCAuth\",a.data.token);"
						],
						"type": "text/javascript"
					}
				}
			],
			"request": {
				"method": "POST",
				"header": [],
				"body": {
					"mode": "raw",
					"raw": "{\r\n    \"username\": \"{{Username3}}\",\r\n    \"password\": \"{{Pass3}}\"\r\n}",
					"options": {
						"raw": {
							"language": "json"
						}
					}
				},
				"url": {
					"raw": "{{BASE_URL}}/v1/login",
					"host": [
						"{{BASE_URL}}"
					],
					"path": [
						"v1",
						"login"
					]
				}
			},
			"response": []
		},
		{
			"name": "QCUserdetailsAPIRequest",
			"request": {
				"method": "GET",
				"header": [
					{
						"key": "Authorization",
						"value": "{{QCAuth}}",
						"type": "text"
					}
				],
				"url": {
					"raw": "{{BASE_URL}}/v1/userdetails",
					"host": [
						"{{BASE_URL}}"
					],
					"path": [
						"v1",
						"userdetails"
					]
				}
			},
			"response": []
		},
		{
			"name": "QCCountAPIRequest",
			"request": {
				"method": "GET",
				"header": [
					{
						"key": "Authorization",
						"value": "{{QCAuth}}",
						"type": "text"
					}
				],
				"url": {
					"raw": "{{BASE_URL}}/v1/dashboard/count",
					"host": [
						"{{BASE_URL}}"
					],
					"path": [
						"v1",
						"dashboard",
						"count"
					]
				}
			},
			"response": []
		},
		{
			"name": "QCListAPIRequest",
			"request": {
				"method": "GET",
				"header": [
					{
						"key": "Authorization",
						"value": "{{QCAuth}}",
						"type": "text"
					}
				],
				"url": {
					"raw": "{{BASE_URL}}/v1/qc",
					"host": [
						"{{BASE_URL}}"
					],
					"path": [
						"v1",
						"qc"
					]
				}
			},
			"response": []
		},
		{
			"name": "QCCompletedAPIRequest",
			"request": {
				"method": "POST",
				"header": [
					{
						"key": "Authorization",
						"value": "{{QCAuth}}",
						"type": "text"
					}
				],
				"body": {
					"mode": "raw",
					"raw": "{\r\n  \"job_id\": \"{{JobID}}\"\r\n}",
					"options": {
						"raw": {
							"language": "json"
						}
					}
				},
				"url": {
					"raw": "{{BASE_URL}}/v1/qc",
					"host": [
						"{{BASE_URL}}"
					],
					"path": [
						"v1",
						"qc"
					]
				}
			},
			"response": []
		},
		{
			"name": "FDReadyforDeliveryAPIRequest",
			"request": {
				"method": "GET",
				"header": [
					{
						"key": "Authorization",
						"value": "{{FDAuth}}",
						"type": "text"
					}
				],
				"url": {
					"raw": "{{BASE_URL}}/v1/fd/readyfordelivery",
					"host": [
						"{{BASE_URL}}"
					],
					"path": [
						"v1",
						"fd",
						"readyfordelivery"
					]
				}
			},
			"response": []
		},
		{
			"name": "FDDelivertoCustomerAPIRequest",
			"request": {
				"method": "POST",
				"header": [
					{
						"key": "Authorization",
						"value": "{{FDAuth}}",
						"type": "text"
					}
				],
				"body": {
					"mode": "raw",
					"raw": "{\r\n  \"job_id\": \"{{JobID}}\"\r\n}",
					"options": {
						"raw": {
							"language": "json"
						}
					}
				},
				"url": {
					"raw": "{{BASE_URL}}/v1/fd/delivertocustomer",
					"host": [
						"{{BASE_URL}}"
					],
					"path": [
						"v1",
						"fd",
						"delivertocustomer"
					]
				}
			},
			"response": []
		}
	],
	"event": [
		{
			"listen": "prerequest",
			"script": {
				"type": "text/javascript",
				"exec": [
					""
				]
			}
		},
		{
			"listen": "test",
			"script": {
				"type": "text/javascript",
				"exec": [
					""
				]
			}
		}
	],
	"variable": [
		{
			"key": "FDAuth",
			"value": ""
		},
		{
			"key": "SUPAuth",
			"value": ""
		},
		{
			"key": "EngAuth",
			"value": ""
		},
		{
			"key": "QCAuth",
			"value": ""
		},
		{
			"key": "JobID",
			"value": ""
		}
	]
}